…
``` r
library (ggridges)
library(patchwork)
library(p8105.datasets)
```

## Problem 1

``` r
data("instacart")
instacart
```

    ## # A tibble: 1,384,617 × 15
    ##    order_id product_id add_to_cart_order reordered user_id eval_set order_number
    ##       <int>      <int>             <int>     <int>   <int> <chr>           <int>
    ##  1        1      49302                 1         1  112108 train               4
    ##  2        1      11109                 2         1  112108 train               4
    ##  3        1      10246                 3         0  112108 train               4
    ##  4        1      49683                 4         0  112108 train               4
    ##  5        1      43633                 5         1  112108 train               4
    ##  6        1      13176                 6         0  112108 train               4
    ##  7        1      47209                 7         0  112108 train               4
    ##  8        1      22035                 8         1  112108 train               4
    ##  9       36      39612                 1         0   79431 train              23
    ## 10       36      19660                 2         1   79431 train              23
    ## # ℹ 1,384,607 more rows
    ## # ℹ 8 more variables: order_dow <int>, order_hour_of_day <int>,
    ## #   days_since_prior_order <int>, product_name <chr>, aisle_id <int>,
    ## #   department_id <int>, aisle <chr>, department <chr>

``` r
instacart|>
  count(aisle_id, sort = TRUE)
```

    ## # A tibble: 134 × 2
    ##    aisle_id      n
    ##       <int>  <int>
    ##  1       83 150609
    ##  2       24 150473
    ##  3      123  78493
    ##  4      120  55240
    ##  5       21  41699
    ##  6      115  36617
    ##  7       84  32644
    ##  8      107  31269
    ##  9       91  26240
    ## 10      112  23635
    ## # ℹ 124 more rows
…
Making a plot

``` r
morethantenk_df =
instacart |>
  select(aisle_id)|>
  count(aisle_id, name = "n" ) |>
  filter (n>10000)|>
  arrange(desc(n))

morethantenk_df
```

    ## # A tibble: 39 × 2
    ##    aisle_id      n
    ##       <int>  <int>
    ##  1       83 150609
    ##  2       24 150473
    ##  3      123  78493
    ##  4      120  55240
    ##  5       21  41699
    ##  6      115  36617
    ##  7       84  32644
    ##  8      107  31269
    ##  9       91  26240
    ## 10      112  23635
    ## # ℹ 29 more rows
…
    ## Rows: 149 Columns: 125
    ## ── Column specification ────────────────────────────────────────────────────────
    ## Delimiter: ","
    ## chr   (6): RegionType, StateName, State, City, Metro, CountyName
    ## dbl (119): RegionID, SizeRank, RegionName, 2015-01-31, 2015-02-28, 2015-03-3...
    ## 
    ## ℹ Use `spec()` to retrieve the full column specification for this data.
    ## ℹ Specify the column types or set `show_col_types = FALSE` to quiet this message.
    ## `summarise()` has grouped output by 'county_name'. You can override using the `.groups` argument.

``` r
zorirental_df
```

    ## # A tibble: 45 × 4
    ## # Groups:   county_name [5]
    ##    county_name   year mean_value na.rm
    ##    <chr>        <int>      <dbl> <lgl>
    ##  1 Bronx County  2015      1760. TRUE 
    ##  2 Bronx County  2016      1520. TRUE 
    ##  3 Bronx County  2017      1544. TRUE 
    ##  4 Bronx County  2018      1639. TRUE 
    ##  5 Bronx County  2019      1706. TRUE 
    ##  6 Bronx County  2020      1811. TRUE 
    ##  7 Bronx County  2021      1858. TRUE 
    ##  8 Bronx County  2022      2054. TRUE 
    ##  9 Bronx County  2023      2285. TRUE 
    ## 10 Bronx County  2024      2497. TRUE 
    ## # ℹ 35 more rows
…
``` r
zipcoderental_df
```

    ## # A tibble: 1,455 × 5
    ## # Groups:   month, region_name [1,455]
    ##    month region_name county_name     mean_value na.rm
    ##    <chr>       <dbl> <chr>                <dbl> <lgl>
    ##  1 April       10001 New York County      4842. TRUE 
    ##  2 April       10002 New York County      4193. TRUE 
    ##  3 April       10003 New York County      4306. TRUE 
    ##  4 April       10004 New York County      3843. TRUE 
    ##  5 April       10005 New York County      3941. TRUE 
    ##  6 April       10006 New York County      4373. TRUE 
    ##  7 April       10007 New York County      7834. TRUE 
    ##  8 April       10009 New York County      4041. TRUE 
    ##  9 April       10010 New York County      4355. TRUE 
    ## 10 April       10011 New York County      4867. TRUE 
    ## # ℹ 1,445 more rows
